[
  {
    "RecordID": 5,
    "RecordTimestamp": "2019-07-10T17:46:25.76",
    "RecordStatus": 0,
    "DeviceID": "SmartSwitch05",
    "DeviceName": "SmartSwitch05",
    "CategoryID": "Tasmota",
    "IPAddress": "10.0.1.43",
    "MacAddress": "B4:E6:2D:59:83:17",
    "SSID": "GTA-AP2",
    "Password": "******",
    "MQTTHost": "10.1.1.28",
    "MQTTUsername": "",
    "MQTTPassword": "",
    "StatusDevice": "Connected",
    "StatusSwitch": "OFF",
    "LocationID": "001001000",
    "LocationName": "1st Floor",
    "Live": 1
  },
  {
    "RecordID": 4,
    "RecordTimestamp": "2019-07-10T17:44:03.147",
    "RecordStatus": 0,
    "DeviceID": "SmartSwitch04",
    "DeviceName": "SmartSwitch04",
    "CategoryID": "Tasmota",
    "IPAddress": "10.0.1.42",
    "MacAddress": "B4:E6:2D:59:83:16",
    "SSID": "GTA-AP2",
    "Password": "******",
    "MQTTHost": "10.1.1.28",
    "MQTTUsername": "",
    "MQTTPassword": "",
    "StatusDevice": "Connected",
    "StatusSwitch": "OFF",
    "LocationID": "001003001",
    "LocationName": "3F Meeting Room",
    "Live": 1
  },
  {
    "RecordID": 3,
    "RecordTimestamp": "2019-06-18T02:55:27.953",
    "RecordStatus": 0,
    "DeviceID": "SmartSwitch03",
    "DeviceName": "SmartSwitch03",
    "CategoryID": "Tasmota",
    "IPAddress": "10.1.1.3",
    "MacAddress": "B4:E6:2D:59:83:18",
    "SSID": "GTA-AP2",
    "Password": "******",
    "MQTTHost": "10.1.1.3",
    "MQTTUsername": "",
    "MQTTPassword": "",
    "StatusDevice": "Connected",
    "StatusSwitch": "OFF",
    "LocationID": "001003001",
    "LocationName": "3F Meeting Room",
    "Live": 1
  },
  {
    "RecordID": 2,
    "RecordTimestamp": "2019-06-18T02:55:27.953",
    "RecordStatus": 0,
    "DeviceID": "SmartSwitch02",
    "DeviceName": "SSmartSwitch02",
    "CategoryID": "Tasmota",
    "IPAddress": "10.1.1.3",
    "MacAddress": "B4:E6:2D:59:83:18",
    "SSID": "GTA-AP2",
    "Password": "******",
    "MQTTHost": "10.1.1.3",
    "MQTTUsername": "",
    "MQTTPassword": "",
    "StatusDevice": "Connected",
    "StatusSwitch": "OFF",
    "LocationID": "001003001",
    "LocationName": "3F Meeting Room",
    "Live": 1
  },
  {
    "RecordID": 1,
    "RecordTimestamp": "2019-06-18T02:55:27.953",
    "RecordStatus": 0,
    "DeviceID": "SmartSwitch01",
    "DeviceName": "SmartSwitch01",
    "CategoryID": "Tasmota",
    "IPAddress": "10.1.1.3",
    "MacAddress": "B4:E6:2D:59:83:18",
    "SSID": "GTA-AP2",
    "Password": "******",
    "MQTTHost": "10.1.1.3",
    "MQTTUsername": "",
    "MQTTPassword": "",
    "StatusDevice": "Connected",
    "StatusSwitch": "OFF",
    "LocationID": "001003001",
    "LocationName": "3F Meeting Room",
    "Live": 1
  }
]
