﻿{
  "handphone": {
    "max_oncharging": "19",
    "min_oncharging": "1",
    "max_fullcharging": "1",
    "min_fullcharging": "1"
  },
  "laptop": {
    "max_oncharging": "85",
    "min_oncharging": "20",
    "max_fullcharging": "38",
    "min_fullcharging": "20"
  },
  "unknown": {
    "max_oncharging": "500",
    "min_oncharging": "86",
    "max_fullcharging": "100",
    "min_fullcharging": "86"
  }
}